module auth

go 1.19

require (
	github.com/dgrijalva/jwt-go v3.2.0+incompatible
	github.com/gorilla/mux v1.8.0
	github.com/jinzhu/gorm v1.9.16
	golang.org/x/crypto v0.1.0
)

require github.com/jinzhu/inflection v1.0.0 // indirect
